<?xml version="1.0" encoding="UTF-8" standalone="no"?>
<svg
   xmlns:dc="http://purl.org/dc/elements/1.1/"
   xmlns:cc="http://creativecommons.org/ns#"
   xmlns:rdf="http://www.w3.org/1999/02/22-rdf-syntax-ns#"
   xmlns:svg="http://www.w3.org/2000/svg"
   xmlns="http://www.w3.org/2000/svg"
   xmlns:sodipodi="http://sodipodi.sourceforge.net/DTD/sodipodi-0.dtd"
   xmlns:inkscape="http://www.inkscape.org/namespaces/inkscape"
   id="Слой_1"
   data-name="Слой 1"
   viewBox="0 0 24 24"
   version="1.1"
   sodipodi:docname="import_brd_file.svg"
   inkscape:version="1.0.2 (1.0.2+r75+1)"
   inkscape:export-filename="/Users/jeff/kicad_dev/kicad/bitmaps_png/png_26/import_brd_file.png"
   inkscape:export-xdpi="96"
   inkscape:export-ydpi="96">
  <sodipodi:namedview
     pagecolor="#ffffff"
     bordercolor="#666666"
     borderopacity="1"
     objecttolerance="10"
     gridtolerance="10"
     guidetolerance="10"
     inkscape:pageopacity="0"
     inkscape:pageshadow="2"
     inkscape:window-width="2560"
     inkscape:window-height="1371"
     id="namedview30"
     showgrid="true"
     inkscape:zoom="21.709691"
     inkscape:cx="11.163373"
     inkscape:cy="13.845115"
     inkscape:window-x="0"
     inkscape:window-y="0"
     inkscape:window-maximized="1"
     inkscape:document-rotation="0"
     inkscape:current-layer="Слой_1">
    <inkscape:grid
       type="xygrid"
       id="grid_kicad"
       spacingx="0.5"
       spacingy="0.5"
       color="#9999ff"
       opacity="0.13"
       empspacing="2" />
  </sodipodi:namedview>
  <metadata
     id="metadata43">
    <rdf:RDF>
      <cc:Work
         rdf:about="">
        <cc:license
           rdf:resource="http://creativecommons.org/licenses/by-sa/4.0/" />
        <dc:format>image/svg+xml</dc:format>
        <dc:type
           rdf:resource="http://purl.org/dc/dcmitype/StillImage" />
        <dc:title>add_arc</dc:title>
      </cc:Work>
      <cc:License
         rdf:about="http://creativecommons.org/licenses/by-sa/4.0/">
        <cc:permits
           rdf:resource="http://creativecommons.org/ns#Reproduction" />
        <cc:permits
           rdf:resource="http://creativecommons.org/ns#Distribution" />
        <cc:requires
           rdf:resource="http://creativecommons.org/ns#Notice" />
        <cc:requires
           rdf:resource="http://creativecommons.org/ns#Attribution" />
        <cc:permits
           rdf:resource="http://creativecommons.org/ns#DerivativeWorks" />
        <cc:requires
           rdf:resource="http://creativecommons.org/ns#ShareAlike" />
      </cc:License>
    </rdf:RDF>
  </metadata>
  <defs
     id="defs25341">
    <style
       id="style25339">.cls-1{fill:#8f8f8f;}.cls-2{fill:#F4EFF3;}.cls-3,.cls-6{fill:none;}.cls-3{stroke:#8f8f8f;stroke-miterlimit:10;stroke-width:0.9551px;}.cls-4{fill:#42B8EB;}.cls-5{fill:#f2647e;}.cls-6{stroke:#545454;stroke-linecap:round;stroke-linejoin:round;stroke-width:2px;}</style>
    <clipPath
       clipPathUnits="userSpaceOnUse"
       id="clipPath888">
      <rect
         style="display:inline;fill:#f29100;fill-opacity:1;stroke:none;stroke-width:2;stroke-linecap:round;stroke-linejoin:round;stroke-miterlimit:4;stroke-dasharray:none"
         id="rect890"
         width="21"
         height="21"
         x="0.00181"
         y="-0.0011243999"
         ry="3.4854646"
         rx="3.4854646"
         sodipodi:insensitive="true" />
    </clipPath>
  </defs>
  <title
     id="title25343">import_brd_file</title>
  <g
     id="g886"
     clip-path="url(#clipPath888)">
    <rect
       class="cls-1"
       x="0.0018101226"
       y="-0.0011243999"
       width="21"
       height="21"
       rx="0"
       id="rect9"
       style="fill:#489648;fill-opacity:1;stroke:none;stroke-width:0.499999;stroke-opacity:1"
       clip-path="none" />
    <path
       class="cls-2"
       d="m 8.50181,20.998876 v -1.500001 l 3.5,-3.5 v -4.999999 l 0.5,-0.5 h 3.5 l 2,1.5 h 3 V 3.9988756 h -3 l -2,1.5 h -1.5 l -1.8125,-2 v -3.5 C 8.7473802,-0.00252877 1.7776269,-3.5025e-5 -1.125e-7,-2.5e-8 0.00181,2.8426256 0.00181,20.998876 0.00181,20.998876 c 1.3125,-0.0243 3.5206629,0 8.5,0 z"
       id="path11"
       sodipodi:nodetypes="ccccccccccccccccc"
       style="fill:#006400;fill-opacity:1;stroke-width:0.499999"
       clip-path="none" />
    <path
       style="fill:none;stroke:#489648;stroke-width:2;stroke-linecap:butt;stroke-linejoin:miter;stroke-miterlimit:4;stroke-dasharray:none;stroke-opacity:1"
       d="m 18.00181,7.9988756 h -5 l -3,-3 v -6"
       id="path2253"
       sodipodi:nodetypes="cccc"
       clip-path="none" />
    <path
       style="fill:none;stroke:#489648;stroke-width:4.47214;stroke-linecap:butt;stroke-linejoin:miter;stroke-miterlimit:4;stroke-dasharray:none;stroke-opacity:1"
       d="m 0.00181,12.611314 h 4.375"
       id="path892"
       sodipodi:nodetypes="cc"
       clip-path="none" />
    <path
       style="fill:none;stroke:#489648;stroke-width:2.5;stroke-linecap:butt;stroke-linejoin:miter;stroke-miterlimit:4;stroke-dasharray:none;stroke-opacity:1"
       d="m 5.00181,21.998875 v -2.999999 l 4,-4.000001 V 9.9988752 l -4,-3.9999996 v -6.5"
       id="path2265"
       sodipodi:nodetypes="cccccc"
       clip-path="none" />
    <rect
       style="fill:#006400;fill-opacity:1;stroke:none;stroke-width:2.32379;stroke-linecap:round;stroke-linejoin:round"
       id="rect878"
       width="5.25"
       height="4.375"
       x="14.87681"
       y="12.998876"
       rx="0"
       ry="0.69999999"
       clip-path="none" />
    <rect
       style="fill:#f29100;fill-opacity:1;stroke:none;stroke-width:1.34164;stroke-linecap:round;stroke-linejoin:round"
       id="rect880"
       width="3.5"
       height="2.625"
       x="15.75181"
       y="13.873876"
       rx="0"
       ry="0.875"
       clip-path="none" />
    <rect
       style="fill:#006400;fill-opacity:1;stroke:none;stroke-width:2.32379;stroke-linecap:round;stroke-linejoin:round"
       id="rect882"
       width="5.25"
       height="4.375"
       x="14.87681"
       y="18.248875"
       rx="0"
       ry="0.69999999"
       clip-path="none" />
    <rect
       style="fill:#f29100;fill-opacity:1;stroke:none;stroke-width:1.34164;stroke-linecap:round;stroke-linejoin:round"
       id="rect884"
       width="3.5"
       height="2.625"
       x="15.75181"
       y="19.123875"
       rx="0"
       ry="0.8431505"
       clip-path="none" />
    <path
       style="fill:none;stroke:#2cb22c;stroke-width:0.999994;stroke-linecap:butt;stroke-linejoin:miter;stroke-miterlimit:4;stroke-dasharray:none;stroke-opacity:1"
       d="m 15.75181,15.186376 h -1.75"
       id="path886"
       sodipodi:nodetypes="cc"
       clip-path="none" />
    <path
       style="fill:none;stroke:#2cb22c;stroke-width:0.999994;stroke-linecap:butt;stroke-linejoin:miter;stroke-miterlimit:4;stroke-dasharray:none;stroke-opacity:1"
       d="m 21.00181,15.186376 h -1.75"
       id="path888"
       sodipodi:nodetypes="cc"
       clip-path="none" />
    <path
       style="fill:none;stroke:#2cb22c;stroke-width:2;stroke-linecap:butt;stroke-linejoin:miter;stroke-miterlimit:4;stroke-dasharray:none;stroke-opacity:1"
       d="m 17.50181,12.998876 v 0.875"
       id="path890"
       sodipodi:nodetypes="cc"
       clip-path="none" />
    <circle
       style="fill:#ffffff;fill-opacity:1;stroke:#f29100;stroke-width:1;stroke-linecap:round;stroke-linejoin:round;stroke-miterlimit:4;stroke-dasharray:none;stroke-opacity:1"
       id="path936"
       cx="3.8844604"
       cy="12.579085"
       r="1.6027977"
       clip-path="none" />
    <circle
       style="fill:#ffffff;fill-opacity:1;stroke:#f29100;stroke-width:1;stroke-linecap:round;stroke-linejoin:round;stroke-miterlimit:4;stroke-dasharray:none;stroke-opacity:1"
       id="circle938"
       cx="18.864687"
       cy="7.9956207"
       r="1.6027977"
       clip-path="none" />
    <path
       class="cls-5"
       d="M 24.999996,16.992578 A 7.9999997,7.9999996 0 1 1 16.999998,9.0000009 7.9962317,7.9962316 0 0 1 24.999996,16.992578 Z"
       id="path908"
       style="fill:#ffffff;fill-opacity:1;stroke-width:1"
       inkscape:connector-curvature="0" />
  </g>
  <path
     class="cls-5"
     d="M 24.0065,17 A 7.0065,7.0065 0 1 1 17,10 a 7.0032,7.0032 0 0 1 7.0065,7 z"
     id="path25365"
     style="display:inline" />
  <line
     class="cls-6"
     x1="17"
     y1="20.4118"
     x2="17"
     y2="13.4118"
     id="line25367"
     style="display:inline;stroke:#ffffff;stroke-opacity:1" />
  <polyline
     class="cls-6"
     points="20.859 18.879 18.104 21.631 15.349 18.879"
     id="polyline25369"
     transform="translate(-1.104,-1)"
     style="display:inline;stroke:#ffffff;stroke-opacity:1" />
</svg>
