<?xml version="1.0" encoding="UTF-8" standalone="no"?>
<svg
   xmlns:dc="http://purl.org/dc/elements/1.1/"
   xmlns:cc="http://creativecommons.org/ns#"
   xmlns:rdf="http://www.w3.org/1999/02/22-rdf-syntax-ns#"
   xmlns:svg="http://www.w3.org/2000/svg"
   xmlns="http://www.w3.org/2000/svg"
   xmlns:sodipodi="http://sodipodi.sourceforge.net/DTD/sodipodi-0.dtd"
   xmlns:inkscape="http://www.inkscape.org/namespaces/inkscape"
   id="Слой_1"
   data-name="Слой 1"
   viewBox="0 0 24 24"
   version="1.1"
   sodipodi:docname="load_module_board.svg"
   inkscape:version="1.0.2 (1.0.2+r75+1)"
   inkscape:export-filename="/Users/jeff/kicad_dev/kicad/bitmaps_png/png_26/import_brd_file.png"
   inkscape:export-xdpi="96"
   inkscape:export-ydpi="96">
  <sodipodi:namedview
     pagecolor="#ffffff"
     bordercolor="#666666"
     borderopacity="1"
     objecttolerance="10"
     gridtolerance="10"
     guidetolerance="10"
     inkscape:pageopacity="0"
     inkscape:pageshadow="2"
     inkscape:window-width="2560"
     inkscape:window-height="1371"
     id="namedview30"
     showgrid="true"
     inkscape:zoom="21.709691"
     inkscape:cx="6.1233866"
     inkscape:cy="15.216777"
     inkscape:window-x="0"
     inkscape:window-y="0"
     inkscape:window-maximized="1"
     inkscape:document-rotation="0"
     inkscape:current-layer="Слой_1">
    <inkscape:grid
       type="xygrid"
       id="grid_kicad"
       spacingx="0.5"
       spacingy="0.5"
       color="#9999ff"
       opacity="0.13"
       empspacing="2" />
  </sodipodi:namedview>
  <metadata
     id="metadata43">
    <rdf:RDF>
      <cc:Work
         rdf:about="">
        <cc:license
           rdf:resource="http://creativecommons.org/licenses/by-sa/4.0/" />
        <dc:format>image/svg+xml</dc:format>
        <dc:type
           rdf:resource="http://purl.org/dc/dcmitype/StillImage" />
        <dc:title>add_arc</dc:title>
      </cc:Work>
      <cc:License
         rdf:about="http://creativecommons.org/licenses/by-sa/4.0/">
        <cc:permits
           rdf:resource="http://creativecommons.org/ns#Reproduction" />
        <cc:permits
           rdf:resource="http://creativecommons.org/ns#Distribution" />
        <cc:requires
           rdf:resource="http://creativecommons.org/ns#Notice" />
        <cc:requires
           rdf:resource="http://creativecommons.org/ns#Attribution" />
        <cc:permits
           rdf:resource="http://creativecommons.org/ns#DerivativeWorks" />
        <cc:requires
           rdf:resource="http://creativecommons.org/ns#ShareAlike" />
      </cc:License>
    </rdf:RDF>
  </metadata>
  <defs
     id="defs25341">
    <style
       id="style25339">.cls-1{fill:#8f8f8f;}.cls-2{fill:#F4EFF3;}.cls-3,.cls-6{fill:none;}.cls-3{stroke:#8f8f8f;stroke-miterlimit:10;stroke-width:0.9551px;}.cls-4{fill:#42B8EB;}.cls-5{fill:#f2647e;}.cls-6{stroke:#545454;stroke-linecap:round;stroke-linejoin:round;stroke-width:2px;}</style>
    <clipPath
       clipPathUnits="userSpaceOnUse"
       id="clipPath884">
      <rect
         style="display:inline;fill:#f29100;fill-opacity:1;stroke:none;stroke-width:2;stroke-linecap:round;stroke-linejoin:round;stroke-miterlimit:4;stroke-dasharray:none"
         id="rect886"
         width="21"
         height="21"
         x="-33"
         y="-2"
         ry="3.4854646"
         rx="3.4854646" />
    </clipPath>
  </defs>
  <title
     id="title25343">import_brd_file</title>
  <g
     id="g952"
     clip-path="url(#clipPath884)"
     transform="translate(33.00181,1.9988756)"
     inkscape:label="g952">
    <rect
       class="cls-1"
       x="1.4020385e-07"
       y="0"
       width="24"
       height="24"
       rx="0"
       id="rect9"
       style="fill:#489648;fill-opacity:1;stroke:none;stroke-width:0.571427;stroke-opacity:1"
       clip-path="none"
       transform="matrix(0.875,0,0,0.875,-33,-2)" />
    <path
       class="cls-2"
       d="m 9.7142857,24 v -1.714286 l 4.0000003,-4 V 12.571429 L 14.285714,12 h 4 l 2.285715,1.714286 H 24 V 4.5714286 H 20.571429 L 18.285714,6.2857143 H 16.571429 L 14.5,4 V 0 C 9.9949374,-0.001605 2.029505,0.001245 -0.0020687,0.001285 0,3.25 0,24 0,24 c 1.5,-0.02777 4.0236148,0 9.7142857,0 z"
       id="path11"
       sodipodi:nodetypes="ccccccccccccccccc"
       style="fill:#006400;fill-opacity:1;stroke-width:0.571427"
       clip-path="none"
       transform="matrix(0.875,0,0,0.875,-33,-2)" />
    <path
       style="fill:none;stroke:#489648;stroke-width:2.28571;stroke-linecap:butt;stroke-linejoin:miter;stroke-miterlimit:4;stroke-dasharray:none;stroke-opacity:1"
       d="M 20.571429,9.1428571 H 14.857143 L 11.428571,5.7142857 v -6.8571428"
       id="path2253"
       sodipodi:nodetypes="cccc"
       clip-path="none"
       transform="matrix(0.875,0,0,0.875,-33,-2)" />
    <path
       style="fill:none;stroke:#489648;stroke-width:3.23249;stroke-linecap:butt;stroke-linejoin:miter;stroke-miterlimit:4;stroke-dasharray:none;stroke-opacity:1"
       d="M 0,14.5 H 2"
       id="path892"
       sodipodi:nodetypes="cc"
       clip-path="none"
       transform="matrix(2.1875,0,0,0.875,-33,-2.0750619)" />
    <path
       style="fill:none;stroke:#489648;stroke-width:2.85714;stroke-linecap:butt;stroke-linejoin:miter;stroke-miterlimit:4;stroke-dasharray:none;stroke-opacity:1"
       d="M 5.2135977,25.142857 V 21.714286 L 9.7850263,17.142857 V 11.428571 L 5.2135977,6.8571429 v -7.42857147"
       id="path2265"
       sodipodi:nodetypes="cccccc"
       clip-path="none"
       transform="matrix(0.875,0,0,0.875,-32.561898,-2)" />
    <rect
       style="fill:#006400;fill-opacity:1;stroke:none;stroke-width:2.65576;stroke-linecap:round;stroke-linejoin:round"
       id="rect878"
       width="6"
       height="5"
       x="17"
       y="14"
       rx="0"
       ry="0.80000001"
       clip-path="none"
       transform="matrix(0.875,0,0,0.875,-33,-1.25)" />
    <rect
       style="fill:#f29100;fill-opacity:1;stroke:none;stroke-width:1.5333;stroke-linecap:round;stroke-linejoin:round"
       id="rect880"
       width="4"
       height="3"
       x="18"
       y="15"
       rx="0"
       ry="1"
       clip-path="none"
       transform="matrix(0.875,0,0,0.875,-33,-1.25)" />
    <rect
       style="fill:#006400;fill-opacity:1;stroke:none;stroke-width:2.65576;stroke-linecap:round;stroke-linejoin:round"
       id="rect882"
       width="6"
       height="5"
       x="17"
       y="20"
       rx="0"
       ry="0.80000001"
       clip-path="none"
       transform="matrix(0.875,0,0,0.875,-33,-1.25)" />
    <rect
       style="fill:#f29100;fill-opacity:1;stroke:none;stroke-width:1.5333;stroke-linecap:round;stroke-linejoin:round"
       id="rect884"
       width="4"
       height="3"
       x="18"
       y="21"
       rx="0"
       ry="0.96360058"
       clip-path="none"
       transform="matrix(0.875,0,0,0.875,-33,-1.25)" />
    <path
       style="fill:none;stroke:#2cb22c;stroke-width:1.14285;stroke-linecap:butt;stroke-linejoin:miter;stroke-miterlimit:4;stroke-dasharray:none;stroke-opacity:1"
       d="M 18,16.5 H 16"
       id="path886"
       sodipodi:nodetypes="cc"
       clip-path="none"
       transform="matrix(0.875,0,0,0.875,-33,-1.25)" />
    <path
       style="fill:none;stroke:#2cb22c;stroke-width:1.14285;stroke-linecap:butt;stroke-linejoin:miter;stroke-miterlimit:4;stroke-dasharray:none;stroke-opacity:1"
       d="M 24,16.5 H 22"
       id="path888"
       sodipodi:nodetypes="cc"
       clip-path="none"
       transform="matrix(0.875,0,0,0.875,-33,-1.25)" />
    <path
       style="fill:none;stroke:#2cb22c;stroke-width:2.28571;stroke-linecap:butt;stroke-linejoin:miter;stroke-miterlimit:4;stroke-dasharray:none;stroke-opacity:1"
       d="m 20,14 v 1"
       id="path890"
       sodipodi:nodetypes="cc"
       clip-path="none"
       transform="matrix(0.875,0,0,0.875,-33,-1.25)" />
    <circle
       style="fill:#ffffff;fill-opacity:1;stroke:#dd8d15;stroke-width:1;stroke-linecap:round;stroke-linejoin:round;stroke-miterlimit:4;stroke-dasharray:none;stroke-opacity:1"
       id="path936"
       cx="-29.11735"
       cy="10.58021"
       r="1.6027977"
       clip-path="none" />
    <circle
       style="fill:#ffffff;fill-opacity:1;stroke:#dd8d15;stroke-width:1;stroke-linecap:round;stroke-linejoin:round;stroke-miterlimit:4;stroke-dasharray:none;stroke-opacity:1"
       id="circle938"
       cx="-14.137123"
       cy="5.9967451"
       r="1.6027977"
       clip-path="none" />
    <path
       class="cls-5"
       d="M -8.0018126,14.993702 A 8.0000004,7.9999996 0 1 1 -16.001813,7.0011253 7.9962324,7.9962316 0 0 1 -8.0018126,14.993702 Z"
       id="path908"
       style="fill:#ffffff;fill-opacity:1;stroke-width:1"
       inkscape:connector-curvature="0" />
  </g>
  <path
     class="cls-5"
     d="m 23.999997,16.993507 a 7,6.9999996 0 1 1 -7,-6.993506 6.9967031,6.9967026 0 0 1 7,6.993506 z"
     id="path25365"
     style="stroke-width:0.999996" />
  <line
     class="cls-6"
     x1="17"
     y1="20.4118"
     x2="17"
     y2="13.4118"
     id="line25367"
     style="stroke:#ffffff;stroke-opacity:1" />
  <polyline
     class="cls-6"
     points="20.859 18.879 18.104 21.631 15.349 18.879"
     id="polyline25369"
     transform="translate(-1.104,-1)"
     style="stroke:#ffffff;stroke-opacity:1" />
</svg>
